02-04-basics
…
Obtaining the predicted values and residuals

reg3 <- lm(TOTAL.VALUE ~ . -YR.BUILT -TAX , data = train.df)

By clicking on the reg3 object, we see that a lot of sub-objects are created. reg3$coefficients gives us the coefficient estimates, reg3$fitted.values gives us the predictions of TOTAL.VALUE and reg3$residualsgives us the residuals.

We can create a dataframe of these objects or augment() them to the dataset.

train.predict <- augment(reg3) 

# To only keep certain columns
train.predict |> select(TOTAL.VALUE, .fitted, .resid)

# A tibble: 4,643 × 3
   TOTAL.VALUE .fitted .resid
         <dbl>   <dbl>  <dbl>
 1        344.    389. -44.5 
 2        413.    458. -45.8 
 3        330.    365. -34.5 
 4        499.    545. -45.9 
 5        332.    351. -19.5 
 6        337.    287.  50.6 
 7        359.    400. -40.8 
 8        334.    335.  -1.68
 9        344.    380. -35.1 
10        316.    317.  -1.40
# ℹ 4,633 more rows
…
